ERROR - 2017-04-19 19:24:32 --> $config['composer_autoload'] is set to TRUE but /var/www/lms/application/vendor/autoload.php was not found.
ERROR - 2017-04-19 19:24:32 --> Severity: Core Warning --> PHP Startup: Unable to load dynamic library '/usr/lib/php/20151012/pdo_mysql.so' - /usr/lib/php/20151012/pdo_mysql.so: undefined symbol: pdo_parse_params Unknown 0
ERROR - 2017-04-19 19:24:32 --> $config['composer_autoload'] is set to TRUE but /var/www/lms/application/vendor/autoload.php was not found.
ERROR - 2017-04-19 19:24:32 --> Could not find the language line "book_list"
