ERROR - 2017-03-14 16:51:56 --> $config['composer_autoload'] is set to TRUE but /var/www/lms/application/vendor/autoload.php was not found.
ERROR - 2017-03-14 17:35:15 --> $config['composer_autoload'] is set to TRUE but /var/www/lms/application/vendor/autoload.php was not found.
ERROR - 2017-03-14 17:35:15 --> Severity: Core Warning --> PHP Startup: Unable to load dynamic library '/usr/lib/php/20151012/php_pdo_mysql.dll' - /usr/lib/php/20151012/php_pdo_mysql.dll: cannot open shared object file: No such file or directory Unknown 0
